Getting Started With the COVID-19 Data: Clustering
…
cases

## # A tibble: 3,142 x 259
##    county_fips_code county_name state state_fips_code date       confirmed_cases
##    <chr>            <chr>       <chr> <chr>           <date>               <dbl>
##  1 50009            Essex Coun VT    50              2021-01-19             111
##  2 50007            Chittenden VT    50              2021-01-19            3636
##  3 10001            Kent County DE    10              2021-01-19           11548
##  4 44009            Washington RI    44              2021-01-19            5521
##  5 33001            Belknap Co NH    33              2021-01-19            2496
##  6 44005            Newport Co RI    44              2021-01-19            3578
##  7 50015            Lamoille C VT    50              2021-01-19             312
##  8 09013            Tolland Co CT    09              2021-01-19            6255
##  9 50001            Addison Co VT    50              2021-01-19             527
## 10 50005            Caledonia  VT    50              2021-01-19             307
## #  with 3,132 more rows, and 253 more variables: deaths <dbl>, geo_id <chr>,
## #   nonfamily_households <dbl>, family_households <dbl>,
## #   median_year_structure_built <dbl>, rent_burden_not_computed <dbl>,
## #   rent_over_50_percent <dbl>, rent_40_to_50_percent <dbl>,
## #   rent_35_to_40_percent <dbl>, rent_30_to_35_percent <dbl>,
## #   rent_25_to_30_percent <dbl>, rent_20_to_25_percent <dbl>,
## #   rent_15_to_20_percent <dbl>, rent_10_to_15_percent <dbl>,
## #   rent_under_10_percent <dbl>, total_pop <dbl>, male_pop <dbl>,
## #   female_pop <dbl>, median_age <dbl>, white_pop <dbl>, black_pop <dbl>,
…
